+----------------------------------------------------------------------------+
|                      Category Information                       |    square|
|#|description                                                    |    meters|
|----------------------------------------------------------------------------|
|1| . . . . . . . . . . . . . . . . . . . . . . . . . . . . . . . |    20,478|
|5| . . . . . . . . . . . . . . . . . . . . . . . . . . . . . . . |    34,134|
|2| . . . . . . . . . . . . . . . . . . . . . . . . . . . . . . . | 1,492,385|
|4| . . . . . . . . . . . . . . . . . . . . . . . . . . . . . . . | 3,108,681|
|3| . . . . . . . . . . . . . . . . . . . . . . . . . . . . . . . |10,559,749|
|----------------------------------------------------------------------------|
|TOTAL                                                            |15,215,427|
+----------------------------------------------------------------------------+
